#FIG 3.2
Portrait
Center
Inches
Letter  
100.00
Single
-2
1200 2
1 1 0 1 0 7 50 -1 -1 0.000 1 0.0000 2925 750 1125 300 2925 750 4050 1050
1 1 0 1 4 7 50 -1 -1 0.000 1 0.0000 8025 2475 1125 300 8025 2475 9150 2475
1 1 0 1 0 7 50 -1 -1 0.000 1 0.0000 5625 4725 1125 300 5625 4725 6750 4725
1 1 0 1 4 7 50 -1 -1 0.000 1 0.0000 3000 6600 1125 300 3000 6600 4125 6600
1 1 0 1 4 7 50 -1 -1 0.000 1 0.0000 3000 8325 1125 300 3000 8325 4125 8325
1 1 0 1 4 7 50 -1 -1 0.000 1 0.0000 5550 6600 1125 300 5550 6600 6675 6600
1 1 0 1 4 7 50 -1 -1 0.000 1 0.0000 2925 4725 1125 300 2925 4725 4050 4725
1 1 0 1 4 7 50 -1 -1 0.000 1 0.0000 5850 3900 750 225 5850 3900 6600 3675
1 1 0 1 4 6 50 -1 20 0.000 1 0.0000 5100 2775 750 225 5100 2775 5850 2775
1 1 0 1 4 6 50 -1 20 0.000 1 0.0000 6450 3225 525 225 6450 3225 6975 3225
1 1 0 1 4 6 50 -1 20 0.000 1 0.0000 829 6282 750 225 829 6282 1579 6282
1 1 0 1 4 6 50 -1 20 0.000 1 0.0000 891 6891 750 225 891 6891 1641 6891
1 1 0 1 4 7 50 -1 -1 0.000 1 0.0000 802 5158 750 225 802 5158 1552 4933
1 1 0 1 4 6 50 -1 20 0.000 1 0.0000 809 4350 750 225 809 4350 1559 4350
1 1 0 1 4 7 50 -1 -1 0.000 1 0.0000 5593 10071 1125 300 5593 10071 6718 10071
1 1 0 1 4 6 50 -1 20 0.000 1 0.0000 896 2464 750 225 896 2464 1646 2464
1 1 0 1 4 6 50 -1 20 0.000 1 0.0000 960 9073 750 225 960 9073 1710 9073
1 1 0 1 4 7 50 -1 -1 0.000 1 0.0000 3000 10050 1125 300 3000 10050 4125 10050
1 1 0 1 4 7 50 -1 -1 0.000 1 0.0000 2916 10959 750 225 2916 10959 3666 10734
2 2 0 1 1 7 50 -1 -1 0.000 0 0 -1 0 0 5
	 1950 1350 3975 1350 3975 1725 1950 1725 1950 1350
2 2 0 1 1 7 50 -1 -1 0.000 0 0 -1 0 0 5
	 1950 2550 3975 2550 3975 2925 1950 2925 1950 2550
2 2 0 1 1 7 50 -1 -1 0.000 0 0 -1 0 0 5
	 1950 1950 3975 1950 3975 2325 1950 2325 1950 1950
2 1 0 1 0 7 50 -1 -1 0.000 0 0 -1 1 0 2
	0 0 1.00 60.00 120.00
	 2925 1050 2925 1350
2 1 0 1 0 7 50 -1 -1 0.000 0 0 -1 1 0 2
	0 0 1.00 60.00 120.00
	 2925 1725 2925 1950
2 1 0 1 0 7 50 -1 -1 0.000 0 0 -1 1 0 2
	0 0 1.00 60.00 120.00
	 2925 2325 2925 2550
2 1 0 1 0 7 50 -1 -1 0.000 0 0 -1 1 0 2
	0 0 1.00 60.00 120.00
	 2925 2925 2925 3150
2 1 0 1 0 7 50 -1 -1 0.000 0 0 -1 1 0 2
	0 0 1.00 60.00 120.00
	 6975 3300 8625 5550
2 1 0 1 0 7 50 -1 -1 0.000 0 0 -1 1 0 2
	0 0 1.00 60.00 120.00
	 8100 2775 8850 5550
2 1 0 1 0 7 50 -1 -1 0.000 0 0 -1 1 0 4
	0 0 1.00 60.00 120.00
	 6600 1350 6600 1125 3450 1125 3450 1350
2 1 0 1 0 7 50 -1 -1 0.000 0 0 -1 1 0 2
	0 0 1.00 60.00 120.00
	 7950 2175 7500 1875
2 2 0 1 1 7 50 -1 -1 0.000 0 0 -1 0 0 5
	 5700 1350 7725 1350 7725 1875 5700 1875 5700 1350
2 2 0 1 1 7 50 -1 -1 0.000 0 0 -1 0 0 5
	 1950 3150 3975 3150 3975 3525 1950 3525 1950 3150
2 1 0 1 0 7 50 -1 -1 0.000 0 0 -1 1 0 2
	0 0 1.00 60.00 120.00
	 3975 3375 5100 3825
2 1 0 1 0 7 50 -1 -1 0.000 0 0 -1 1 0 2
	0 0 1.00 60.00 120.00
	 2925 3525 2925 3750
2 1 0 1 0 7 50 -1 -1 0.000 0 0 -1 1 0 2
	0 0 1.00 60.00 120.00
	 7050 3900 8325 5550
2 2 0 1 1 7 50 -1 -1 0.000 0 0 -1 0 0 5
	 1950 3750 3975 3750 3975 4125 1950 4125 1950 3750
2 2 0 1 2 7 50 -1 -1 0.000 0 0 -1 0 0 5
	 1950 5550 3975 5550 3975 5925 1950 5925 1950 5550
2 2 0 1 1 7 50 -1 -1 0.000 0 0 -1 0 0 5
	 4575 5550 6600 5550 6600 5925 4575 5925 4575 5550
2 2 0 1 2 7 50 -1 -1 0.000 0 0 -1 0 0 5
	 7200 5550 9225 5550 9225 5925 7200 5925 7200 5550
2 1 0 1 0 7 50 -1 -1 0.000 0 0 -1 1 0 2
	0 0 1.00 60.00 120.00
	 2925 4125 2925 4425
2 1 0 1 0 7 50 -1 -1 0.000 0 0 -1 1 0 2
	0 0 1.00 60.00 120.00
	 2925 5025 2925 5550
2 1 0 1 0 7 50 -1 -1 0.000 0 0 -1 1 0 3
	0 0 1.00 60.00 120.00
	 4650 4875 3450 5325 3450 5550
2 1 0 1 0 7 50 -1 -1 0.000 0 0 -1 1 0 3
	0 0 1.00 60.00 120.00
	 3675 4950 5250 5325 5250 5550
2 1 0 1 0 7 50 -1 -1 0.000 0 0 -1 1 0 2
	0 0 1.00 60.00 120.00
	 5550 5925 5550 6300
2 1 0 1 0 7 50 -1 -1 0.000 0 0 -1 1 0 2
	0 0 1.00 60.00 120.00
	 2925 5925 2925 6300
2 1 0 1 0 7 50 -1 -1 0.000 0 0 -1 1 0 3
	0 0 1.00 60.00 120.00
	 6675 6600 8100 6300 8100 5925
2 1 0 1 0 7 50 -1 -1 0.000 0 0 -1 1 0 2
	0 0 1.00 60.00 120.00
	 7575 5550 6600 4875
2 2 0 1 2 7 50 -1 -1 0.000 0 0 -1 0 0 5
	 1950 7275 3975 7275 3975 7650 1950 7650 1950 7275
2 2 0 1 2 7 50 -1 -1 0.000 0 0 -1 0 0 5
	 1950 9000 3975 9000 3975 9375 1950 9375 1950 9000
2 1 0 1 0 7 50 -1 -1 0.000 0 0 -1 1 0 2
	0 0 1.00 60.00 120.00
	 2925 6900 2925 7275
2 1 0 1 0 7 50 -1 -1 0.000 0 0 -1 1 0 2
	0 0 1.00 60.00 120.00
	 2925 7650 2925 8025
2 1 0 1 0 7 50 -1 -1 0.000 0 0 -1 1 0 2
	0 0 1.00 60.00 120.00
	 2925 8625 2925 9000
2 1 0 1 0 7 50 -1 -1 0.000 0 0 -1 1 0 2
	0 0 1.00 60.00 120.00
	 2925 9375 2925 9750
2 1 1 1 0 7 50 -1 -1 4.000 0 0 -1 1 1 2
	0 0 1.00 60.00 120.00
	0 0 1.00 60.00 120.00
	 3975 5700 4575 5700
2 1 1 1 0 7 50 -1 -1 4.000 0 0 -1 0 0 4
	 4125 8325 4275 8325 4275 6000 4275 5700
2 1 0 1 0 7 50 -1 -1 0.000 0 0 -1 0 0 2
	 6600 3900 7050 3900
2 1 0 1 0 7 50 -1 -1 0.000 0 0 -1 1 0 2
	0 0 1.00 60.00 120.00
	 4350 2775 3975 2775
2 1 0 1 0 7 50 -1 -1 0.000 0 0 -1 1 0 2
	0 0 1.00 60.00 120.00
	 6450 3000 6450 1875
2 1 0 1 0 7 50 -1 -1 0.000 0 0 -1 1 0 2
	0 0 1.00 60.00 120.00
	 5475 2475 5925 1950
2 1 0 1 0 7 50 -1 -1 0.000 0 0 -1 1 0 2
	0 0 1.00 60.00 120.00
	 1575 7050 1875 7425
2 1 0 1 0 7 50 -1 -1 0.000 0 0 -1 1 0 2
	0 0 1.00 60.00 120.00
	 1575 6375 2100 7200
2 1 0 1 0 7 50 -1 -1 0.000 0 0 -1 1 0 2
	0 0 1.00 60.00 120.00
	 1350 5400 1885 5769
2 1 0 1 0 7 50 -1 -1 0.000 0 0 -1 1 0 3
	0 0 1.00 60.00 120.00
	 1650 5175 7575 5175 8025 5550
2 1 0 1 0 7 50 -1 -1 0.000 0 0 -1 1 0 2
	0 0 1.00 60.00 120.00
	 825 4575 825 4875
2 1 0 1 0 7 50 -1 -1 0.000 0 0 -1 1 0 2
	0 0 1.00 60.00 120.00
	 1789 4741 1425 4950
2 1 0 1 0 7 50 -1 -1 0.000 0 0 -1 1 0 2
	0 0 1.00 60.00 120.00
	 3750 9375 4950 9825
2 1 0 1 0 7 50 -1 -1 0.000 0 0 -1 1 0 2
	0 0 1.00 60.00 120.00
	 1875 2250 1650 2400
2 1 0 1 0 7 50 -1 -1 0.000 0 0 -1 1 0 3
	0 0 1.00 60.00 120.00
	 825 2700 825 3150 1200 3525
2 1 0 1 0 7 50 -1 -1 0.000 0 0 -1 1 0 2
	0 0 1.00 60.00 120.00
	 825 3150 1218 2985
2 1 0 1 0 7 50 -1 -1 0.000 0 0 -1 1 0 2
	0 0 1.00 60.00 120.00
	 1050 9300 1950 9825
2 1 0 1 0 7 50 -1 -1 0.000 0 0 -1 1 0 2
	0 0 1.00 60.00 120.00
	 2925 10350 2925 10725
4 0 0 50 -1 0 12 0.0000 4 135 720 2550 825 Raw data\001
4 0 0 50 -1 0 12 0.0000 4 180 705 2550 1575 De-glitch\001
4 0 0 50 -1 0 12 0.0000 4 135 525 6150 3300 Beams\001
4 0 0 50 -1 0 12 0.0000 4 180 1605 7275 2550 Sim I,Q,U ideal maps\001
4 0 0 50 -1 0 12 0.0000 4 180 1500 5925 1800 (inc time const etc)\001
4 0 0 50 -1 0 12 0.0000 4 135 1545 5850 1575 "Hardcore" data sim\001
4 0 0 50 -1 0 12 0.0000 4 165 1665 2100 2700 De-conv, LP filter and\001
4 0 0 50 -1 0 12 0.0000 4 180 1005 2400 2850 down-sample\001
4 0 0 50 -1 0 12 0.0000 4 135 1620 2175 2175 Relative cal channels\001
4 0 0 50 -1 0 12 0.0000 4 180 1335 2250 3375 Filter atmosphere\001
4 0 0 50 -1 0 12 0.0000 4 135 1140 5325 3975 Record of filter\001
4 0 0 50 -1 0 12 0.0000 4 180 1740 2100 3900 Strip to const vel CMB\001
4 0 0 50 -1 0 12 0.0000 4 180 690 2550 4050 data only\001
4 0 0 50 -1 0 12 0.0000 4 180 1890 4650 5700 Make per day/chan noise\001
4 0 0 50 -1 0 12 0.0000 4 180 1410 4650 5850 auto/cross spectra\001
4 0 0 50 -1 0 12 0.0000 4 180 1500 5025 4800 Sim proc. TOD files\001
4 0 0 50 -1 0 12 0.0000 4 135 1590 2250 4800 Processed TOD files\001
4 0 0 50 -1 0 12 0.0000 4 135 1170 7500 5775 Make sim TOD\001
4 0 0 50 -1 0 12 0.0000 4 180 1020 5100 6825 noise spectra\001
4 0 0 50 -1 0 12 0.0000 4 180 1995 1950 7500 Co-add per chan/day maps\001
4 0 0 50 -1 0 12 0.0000 4 180 1845 2025 8400 Sim and real I,Q,U maps\001
4 0 0 50 -1 0 12 0.0000 4 180 1860 2025 9225 Make ang pow spectrum\001
4 0 0 50 -1 0 12 0.0000 4 135 465 2775 10125 Cl's ...\001
4 0 0 50 -1 0 12 0.0000 4 180 1815 4725 6600 Per day/chan auto/cross\001
4 0 0 50 -1 0 12 0.0000 4 180 1890 2025 5775 Make per day/chan maps\001
4 0 0 50 -1 0 12 0.0000 4 180 1680 5775 8250 Blue = "level B" steps\001
4 0 0 50 -1 0 12 0.0000 4 180 3495 5775 8550 Green = steps Edinburgh need to be able to do\001
4 0 0 50 -1 0 12 0.0000 4 180 3420 5775 7950 Red = "published product" for general access\001
4 0 0 50 -1 0 12 0.0000 4 180 1425 2250 6675 Per day/chan maps\001
4 0 0 50 -1 0 12 0.0000 4 135 1110 4650 2850 Transfer funcs\001
4 0 0 50 -1 0 12 0.0000 4 180 960 375 6900 good day list\001
4 0 0 50 -1 0 12 0.0000 4 180 1320 225 6300 good detector list\001
4 0 0 50 -1 0 12 0.0000 4 180 1020 225 5175 pointing TOD\001
4 0 0 50 -1 0 12 0.0000 4 180 1095 225 4350 pointing model\001
4 0 0 50 -1 0 12 0.0000 4 135 75 1200 3300 ?\001
4 0 0 50 -1 0 12 0.0000 4 135 555 375 2475 rel cals\001
4 0 0 50 -1 0 12 0.0000 4 135 540 375 9075 abs cal\001
4 0 0 50 -1 0 12 0.0000 4 180 1905 4725 10125 Jackknife spectra / chi2's\001
4 0 0 50 -1 0 16 0.0000 4 165 660 2700 11025 r < ???\001
