\relax 
\newlabel{FirstPage}{{}{1}{}{}{}}
\@writefile{toc}{\contentsline {section}{\numberline {I}Filenames}{1}{}}
\@writefile{toc}{\contentsline {section}{\numberline {II}Initial Configuration}{1}{}}
\@writefile{toc}{\contentsline {section}{\numberline {III}Running}{2}{}}
\@writefile{toc}{\contentsline {section}{\numberline {IV}Results}{2}{}}
\@writefile{toc}{\contentsline {subsection}{\numberline {A}Raw Data}{2}{}}
\bibstyle{apsrev}
\@writefile{toc}{\contentsline {subsection}{\numberline {B}Plots}{3}{}}
\@writefile{toc}{\contentsline {subsection}{\numberline {C}Run log}{3}{}}
\newlabel{LastPage}{{}{3}}
\@writefile{lof}{\contentsline {figure}{\numberline {1}{\ignorespaces Plot of encoder timestreams displayed on the screen and also saved in the plots subdirectory of the output directory. The red circles show the encoder ticks as detected by a simple tickfinder algorithm. A full turn reconstruction algorithm, including the absolute encoder, is under development. }}{4}{}}
\newlabel{plot}{{1}{4}{}{}{}}
