46.6000,25.6000,8.4000,0.0828
73.7000,17.7000,16.3000,0.0561
107.2000,16.2000,17.8000,0.1176
141.2000,15.2000,18.8000,0.0799
175.8000,14.8000,19.2000,0.1749
210.1000,14.1000,19.9000,0.3261
244.2000,13.2000,20.8000,0.5980
278.8000,12.8000,21.2000,1.0579
313.1000,12.1000,21.9000,2.8859
