DATE,050611
DECK,0.000000
SOURCE,RCW38
EXT_TEMP,-65.022217
BODY
        channel_name, ra_off_dos, dec_off,    beam_sig_a,beam_sig_b,beam_phi,beam_peak,grid_phi
Units,  (null),       deg,        deg,        deg,       deg,       deg,     volts,  deg
Format, string,       float,      float,      float,     float,     float,   float,  float
        150-1-A,     -0.000094,   0.000413,  0.054694,  0.029729,  117.41,   0.188,   33.00
        150-1-B,      0.000094,  -0.000413,  0.053911,  0.030618,  116.45,   0.184,  123.00
        150-2-A,     -0.165762,   0.256971,  0.057822,  0.030661,  116.53,   0.180,  -12.00
        150-2-B,     -0.164521,   0.258459,  0.056760,  0.030769,  119.82,   0.177,   78.00
        150-3-A,      0.142096,   0.267085,  0.055194,  0.031376,  117.11,   0.178,   33.00
        150-3-B,      0.142589,   0.266007,  0.053831,  0.031714,  116.36,   0.178,  123.00
        150-4-A,      0.308164,   0.010373,  0.056889,  0.031927,  117.35,   0.167,  -12.00
        150-4-B,      0.308626,   0.010223,  0.056305,  0.031900,  119.71,   0.171,   78.00
        150-5-A,      0.164828,  -0.255174,  0.061613,  0.031445,  118.67,   0.155,   33.00
        150-5-B,      0.164976,  -0.257792,  0.060622,  0.031153,  116.85,   0.164,  123.00
        150-6-A,     -0.143565,  -0.265343,  0.061417,  0.030714,  113.27,   0.169,  -12.00
        150-6-B,     -0.141523,  -0.268049,  0.060779,  0.030914,  114.99,   0.171,   78.00
        150-7-A,     -0.303944,  -0.013549,  0.055928,  0.031087,  117.07,   0.174,   33.00
        150-7-B,     -0.305910,  -0.011257,  0.055492,  0.033328,  117.24,   0.151,  123.00
        150-8-A,     -0.188884,   0.787302,  0.045195,  0.029534,  120.50,   0.226,   33.00
        150-8-B,     -0.187842,   0.784863,  0.044016,  0.029854,  121.03,   0.226,  123.00
        150-9-A,      0.129959,   0.794803,  0.045398,  0.029858,  121.83,   0.217,  -12.00
        150-9-B,      0.128608,   0.789770,  0.046644,  0.030095,  124.67,   0.219,   78.00
       150-10-A,      0.585343,   0.553614,  0.047230,  0.029147,  123.60,   0.210,   33.00
       150-10-B,      0.587652,   0.555351,  0.044868,  0.029641,  123.41,   0.215,  123.00
       150-11-A,      0.758733,   0.286688,  0.043813,  0.029009,  117.80,   0.222,  -12.00
       150-11-B,      0.758984,   0.287445,  0.044368,  0.029405,  122.72,   0.219,   78.00
       150-12-A,     -0.006032,   0.007486,  0.000000,  0.000000,    0.00,   0.000,   33.00
       150-12-B,      0.783430,  -0.228242,  0.042289,  0.029730,  107.26,   0.238,  123.00
       150-13-A,      0.638365,  -0.518394,  0.043291,  0.030864,  104.34,   0.222,  -12.00
       150-13-B,      0.640862,  -0.518038,  0.042436,  0.029834,  108.25,   0.239,   78.00
       150-14-A,      0.196763,  -0.804710,  0.043359,  0.030326,  111.56,   0.232,   33.00
       150-14-B,      0.195041,  -0.802376,  0.041067,  0.030474,  109.37,   0.235,  123.00
       150-15-A,     -0.123055,  -0.817637,  0.043176,  0.029848,  111.06,   0.229,  -12.00
       150-15-B,     -0.121643,  -0.813973,  0.042835,  0.030416,  118.73,   0.230,   78.00
       150-16-A,     -0.585434,  -0.559184,  0.052763,  0.029333,  115.35,   0.199,   33.00
       150-16-B,     -0.006032,   0.007486,  0.000000,  0.000000,    0.00,   0.000,  123.00
       150-17-A,     -0.758461,  -0.276656,  0.052229,  0.029405,  112.11,   0.205,  -12.00
       150-17-B,     -0.006032,   0.007486,  0.000000,  0.000000,    0.00,   0.000,   78.00
       150-18-A,     -0.784093,   0.243080,  0.045376,  0.029723,  114.21,   0.215,   33.00
       150-18-B,     -0.783278,   0.240068,  0.044129,  0.030481,  112.66,   0.216,  123.00
       150-19-A,     -0.636466,   0.519168,  0.045526,  0.029377,  114.20,   0.220,  -12.00
       150-19-B,     -0.640454,   0.519881,  0.045013,  0.029467,  117.11,   0.234,   78.00
        100-1-A,     -0.325601,   0.521365,  0.046924,  0.036792,  120.18,   0.248,   33.00
        100-1-B,     -0.325502,   0.520974,  0.045730,  0.037330,  119.60,   0.259,  123.00
        100-2-A,     -0.023066,   0.536835,  0.047436,  0.038235,  113.83,   0.236,  -12.00
        100-2-B,     -0.023535,   0.535960,  0.046722,  0.037965,  120.84,   0.246,   78.00
        100-3-A,     -0.006032,   0.007486,  0.000000,  0.000000,    0.00,   0.000,   33.00
        100-3-B,      0.283690,   0.537315,  0.043886,  0.038495,  115.62,   0.255,  123.00
        100-4-A,      0.457622,   0.284746,  0.044115,  0.036994,  111.72,   0.257,  -12.00
        100-4-B,      0.456638,   0.285117,  0.043945,  0.037491,  124.00,   0.266,   78.00
        100-5-A,      0.615290,   0.023961,  0.045975,  0.037021,  112.97,   0.259,  -12.00
        100-5-B,      0.615124,   0.024451,  0.045687,  0.037475,  122.56,   0.260,   78.00
        100-6-A,      0.478598,  -0.246753,  0.049462,  0.037023,  119.01,   0.243,   33.00
        100-6-B,      0.478679,  -0.246487,  0.047265,  0.037707,  117.95,   0.253,  123.00
        100-7-A,      0.331533,  -0.519499,  0.050867,  0.038215,  112.98,   0.228,   33.00
        100-7-B,      0.333296,  -0.519076,  0.048800,  0.039141,  109.99,   0.236,  123.00
        100-8-A,      0.024853,  -0.543256,  0.051328,  0.038790,  107.50,   0.189,  -12.00
        100-8-B,      0.024813,  -0.543175,  0.050612,  0.037896,  109.88,   0.204,   78.00
        100-9-A,     -0.281754,  -0.544917,  0.050123,  0.038220,  108.21,   0.230,   33.00
        100-9-B,     -0.282072,  -0.545346,  0.048032,  0.038200,  104.05,   0.240,  123.00
       100-10-A,     -0.006032,   0.007486,  0.000000,  0.000000,    0.00,   0.000,  -12.00
       100-10-B,     -0.455471,  -0.280134,  0.047843,  0.037358,  115.71,   0.253,   78.00
       100-11-A,     -0.613833,  -0.023305,  0.047743,  0.037016,  112.52,   0.239,   33.00
       100-11-B,     -0.614854,  -0.023564,  0.045550,  0.037826,  107.77,   0.244,  123.00
       100-12-A,     -0.477816,   0.255499,  0.046822,  0.037108,  120.05,   0.237,   33.00
       100-12-B,     -0.478379,   0.254385,  0.045109,  0.037779,  119.67,   0.240,  123.00
