DATE,050712
DECK,0.000000
SOURCE,RCW38
EXT_TEMP,-70.991893
BODY
        channel_name, ra_off_dos, dec_off,    beam_sig_a,beam_sig_b,beam_phi,beam_peak
Units,  (null),       deg,        deg,        deg,       deg,       deg,     volts
Format, string,       float,      float,      float,     float,     float,   float
        150-1-A,      0.000071,   0.000146,  0.038545,  0.027837,  114.46,   0.330
        150-1-B,     -0.000071,  -0.000146,  0.037370,  0.027892,  110.16,   0.334
        150-2-A,     -0.161920,   0.259870,  0.039557,  0.027873,  116.58,   0.328
        150-2-B,     -0.162033,   0.260535,  0.039248,  0.027865,  120.78,   0.326
        150-3-A,      0.142973,   0.271034,  0.038724,  0.028152,  117.76,   0.321
        150-3-B,      0.143999,   0.270731,  0.036796,  0.028256,  114.80,   0.331
        150-4-A,      0.306143,   0.011441,  0.039195,  0.028425,  110.13,   0.306
        150-4-B,      0.306978,   0.011191,  0.037933,  0.028702,  115.14,   0.316
        150-5-A,      0.168476,  -0.265568,  0.041326,  0.030989,  112.25,   0.253
        150-5-B,      0.168169,  -0.266933,  0.039447,  0.029745,  107.34,   0.281
        150-6-A,     -0.139774,  -0.276609,  0.040118,  0.028582,  104.63,   0.293
        150-6-B,     -0.138739,  -0.277873,  0.039163,  0.028962,  110.09,   0.301
        150-7-A,     -0.303028,  -0.013173,  0.040264,  0.027693,  115.44,   0.314
        150-7-B,     -0.304771,  -0.011843,  0.038506,  0.028807,  114.60,   0.282
        150-8-A,     -0.193108,   0.784913,  0.033540,  0.029244,  108.88,   0.334
        150-8-B,     -0.191675,   0.782958,  0.031938,  0.029599,  105.67,   0.345
        150-9-A,      0.123524,   0.793004,  0.032450,  0.029430,  103.32,   0.327
        150-9-B,      0.122500,   0.788596,  0.032337,  0.029502,  122.93,   0.331
       150-10-A,      0.583208,   0.550672,  0.033152,  0.028716,  117.08,   0.329
       150-10-B,      0.585176,   0.552071,  0.031929,  0.029126,  111.87,   0.343
       150-11-A,      0.749797,   0.290886,  0.033410,  0.027728,  102.19,   0.347
       150-11-B,      0.750726,   0.290538,  0.033194,  0.028263,  110.06,   0.347
       150-12-A,      0.000000,   0.000000,  0.000000,  0.000000,    0.00,   0.000
       150-12-B,      0.780374,  -0.234540,  0.032393,  0.028845,   74.98,   0.346
       150-13-A,      0.628744,  -0.519320,  0.032490,  0.030386,   94.20,   0.319
       150-13-B,      0.631545,  -0.518542,  0.031735,  0.029348,   99.20,   0.341
       150-14-A,      0.187573,  -0.793396,  0.033530,  0.030214,   99.95,   0.332
       150-14-B,      0.185091,  -0.790899,  0.032659,  0.029762,   89.88,   0.338
       150-15-A,     -0.128411,  -0.806120,  0.032560,  0.029578,  106.22,   0.338
       150-15-B,     -0.127742,  -0.802732,  0.032793,  0.030256,  123.81,   0.329
       150-16-A,     -0.583792,  -0.558164,  0.034061,  0.030905,  110.41,   0.285
       150-16-B,      0.000000,   0.000000,  0.000000,  0.000000,    0.00,   0.000
       150-17-A,     -0.752201,  -0.285159,  0.035674,  0.030746,   93.81,   0.282
       150-17-B,      0.000000,   0.000000,  0.000000,  0.000000,    0.00,   0.000
       150-18-A,     -0.772548,   0.241140,  0.034462,  0.029854,  114.00,   0.308
       150-18-B,     -0.772803,   0.237982,  0.033711,  0.029695,  106.64,   0.319
       150-19-A,     -0.626035,   0.515131,  0.032667,  0.029216,   97.77,   0.326
       150-19-B,     -0.629458,   0.515320,  0.032392,  0.029692,  109.10,   0.340
        100-1-A,     -0.322692,   0.522054,  0.039243,  0.038256,  107.86,   0.297
        100-1-B,     -0.321915,   0.521522,  0.038988,  0.038035,   54.51,   0.311
        100-2-A,     -0.020745,   0.537635,  0.040707,  0.038930,   92.35,   0.289
        100-2-B,     -0.021640,   0.536671,  0.040178,  0.038911,  131.49,   0.302
        100-3-A,      0.000000,   0.000000,  0.000000,  0.000000,    0.00,   0.000
        100-3-B,      0.284179,   0.538378,  0.038871,  0.038326,   51.62,   0.315
        100-4-A,      0.454676,   0.289922,  0.040966,  0.037033,  103.30,   0.316
        100-4-B,      0.454416,   0.290016,  0.040608,  0.037447,  117.07,   0.330
        100-5-A,      0.609751,   0.025533,  0.041412,  0.037622,   79.87,   0.311
        100-5-B,      0.609957,   0.025612,  0.040644,  0.038918,   84.19,   0.307
        100-6-A,      0.480300,  -0.256008,  0.041450,  0.039061,   71.30,   0.293
        100-6-B,      0.480391,  -0.254670,  0.041639,  0.038073,   54.75,   0.305
        100-7-A,      0.327219,  -0.524191,  0.042486,  0.039780,  104.99,   0.274
        100-7-B,      0.328281,  -0.523133,  0.041595,  0.039845,   79.33,   0.286
        100-8-A,      0.022518,  -0.546046,  0.041748,  0.040032,   94.38,   0.233
        100-8-B,      0.022899,  -0.545189,  0.041377,  0.039127,   98.47,   0.249
        100-9-A,     -0.281551,  -0.546947,  0.041227,  0.039217,  101.12,   0.275
        100-9-B,     -0.282311,  -0.547202,  0.040438,  0.038567,   79.49,   0.288
       100-10-A,      0.000000,   0.000000,  0.000000,  0.000000,    0.00,   0.000
       100-10-B,     -0.452972,  -0.287953,  0.040969,  0.038743,   91.47,   0.299
       100-11-A,     -0.609571,  -0.024727,  0.044553,  0.037893,  115.57,   0.290
       100-11-B,     -0.611041,  -0.025252,  0.043008,  0.038137,  110.57,   0.298
       100-12-A,     -0.473143,   0.257595,  0.042449,  0.038016,  115.85,   0.286
       100-12-B,     -0.473766,   0.256657,  0.041103,  0.038308,  110.64,   0.297
