DATE,050909
DECK,30.000000
SOURCE,RCW38
EXT_TEMP,-61.228623
BODY
        channel_name, ra_off_dos, dec_off,    beam_sig_a,beam_sig_b,beam_phi,beam_peak
Units,  (null),       deg,        deg,        deg,       deg,       deg,     volts
Format, string,       float,      float,      float,     float,     float,   float
        150-1-A,     -0.000018,   0.000001,  0.031776,  0.028944,  159.11,   0.339
        150-1-B,      0.000018,  -0.000001,  0.030280,  0.028965,  159.99,   0.349
        150-2-A,     -0.268534,   0.144576,  0.034356,  0.030137,  135.12,   0.336
        150-2-B,     -0.269040,   0.144609,  0.034133,  0.030114,  144.09,   0.331
        150-3-A,     -0.015190,   0.309274,  0.033083,  0.028903,  153.65,   0.337
        150-3-B,     -0.013891,   0.309424,  0.031303,  0.029291,  152.64,   0.352
        150-4-A,      0.260738,   0.164280,  0.034182,  0.029361,  135.97,   0.325
        150-4-B,      0.261623,   0.164447,  0.032814,  0.029547,  148.04,   0.335
        150-5-A,      0.268411,  -0.140550,  0.035425,  0.030461,  156.71,   0.279
        150-5-B,      0.268749,  -0.141211,  0.033071,  0.030273,  147.25,   0.312
        150-6-A,      0.006767,  -0.306575,  0.033880,  0.029588,  137.11,   0.315
        150-6-B,      0.007698,  -0.306592,  0.033199,  0.029662,  149.05,   0.319
        150-7-A,     -0.260210,  -0.162066,  0.034473,  0.028994,  144.51,   0.319
        150-7-B,     -0.261931,  -0.161949,  0.033399,  0.029569,  143.44,   0.295
        150-8-A,     -0.561826,   0.588742,  0.032839,  0.028769,  136.46,   0.333
        150-8-B,     -0.559173,   0.587793,  0.031364,  0.028983,  133.50,   0.346
        150-9-A,     -0.294538,   0.747466,  0.031030,  0.030023,  178.37,   0.316
        150-9-B,     -0.293414,   0.743652,  0.031449,  0.028990,    9.86,   0.328
       150-10-A,      0.223255,   0.762117,  0.031512,  0.029194,  165.43,   0.324
       150-10-B,      0.224585,   0.764212,  0.030491,  0.029579,  172.69,   0.345
       150-11-A,      0.501134,   0.623972,  0.031041,  0.028560,  137.14,   0.333
       150-11-B,      0.502263,   0.624365,  0.031316,  0.028760,  152.18,   0.334
       150-12-A,      0.000000,   0.000000,  0.000000,  0.000000,    0.00,   0.000
       150-12-B,      0.786098,   0.193984,  0.030561,  0.029189,   72.70,   0.356
       150-13-A,      0.795078,  -0.123564,  0.031668,  0.029870,   43.58,   0.322
       150-13-B,      0.796969,  -0.121093,  0.031022,  0.028476,   50.82,   0.351
       150-14-A,      0.549855,  -0.579312,  0.031374,  0.029830,   83.42,   0.333
       150-14-B,      0.546510,  -0.578245,  0.031445,  0.028891,   77.20,   0.335
       150-15-A,      0.278717,  -0.750537,  0.031618,  0.029387,   60.09,   0.326
       150-15-B,      0.277734,  -0.747319,  0.032035,  0.029067,   43.00,   0.323
       150-16-A,     -0.243503,  -0.766021,  0.033760,  0.031373,   61.06,   0.279
       150-16-B,      0.000000,   0.000000,  0.000000,  0.000000,    0.00,   0.000
       150-17-A,     -0.520763,  -0.615641,  0.033044,  0.031289,   76.73,   0.286
       150-17-B,      0.000000,   0.000000,  0.000000,  0.000000,    0.00,   0.000
       150-18-A,     -0.790286,  -0.177163,  0.032451,  0.031096,   79.42,   0.303
       150-18-B,     -0.788991,  -0.180159,  0.032515,  0.030279,   82.71,   0.317
       150-19-A,     -0.795344,   0.135846,  0.033377,  0.030123,   96.31,   0.330
       150-19-B,     -0.798199,   0.134039,  0.032508,  0.030732,   88.52,   0.339
        100-1-A,     -0.543796,   0.295843,  0.040545,  0.038010,   88.90,   0.285
        100-1-B,     -0.542609,   0.295982,  0.041084,  0.037295,   81.30,   0.304
        100-2-A,     -0.288027,   0.457137,  0.041218,  0.038778,   85.08,   0.280
        100-2-B,     -0.288282,   0.455967,  0.040497,  0.038708,   65.29,   0.294
        100-3-A,      0.000000,   0.000000,  0.000000,  0.000000,    0.00,   0.000
        100-3-B,     -0.029316,   0.609341,  0.039172,  0.038193,   99.17,   0.311
        100-4-A,      0.251961,   0.477397,  0.039851,  0.037588,   91.32,   0.316
        100-4-B,      0.000000,   0.000000,  0.000000,  0.000000,    0.00,   0.000
        100-5-A,      0.514611,   0.328579,  0.039839,  0.036742,   64.46,   0.310
        100-5-B,      0.514610,   0.329028,  0.040324,  0.036907,   48.72,   0.308
        100-6-A,      0.539059,   0.022250,  0.041263,  0.037677,   58.38,   0.299
        100-6-B,      0.538668,   0.023362,  0.041714,  0.036369,   59.48,   0.313
        100-7-A,      0.536561,  -0.281469,  0.042357,  0.039260,   61.62,   0.284
        100-7-B,      0.537313,  -0.279911,  0.043016,  0.037979,   63.09,   0.299
        100-8-A,      0.278075,  -0.449182,  0.040548,  0.038189,   25.40,   0.243
        100-8-B,      0.277463,  -0.448324,  0.040054,  0.037870,   29.40,   0.258
        100-9-A,      0.016355,  -0.602498,  0.041620,  0.039819,   82.16,   0.280
        100-9-B,      0.015825,  -0.603057,  0.041849,  0.038387,   75.79,   0.292
       100-10-A,      0.000000,   0.000000,  0.000000,  0.000000,    0.00,   0.000
       100-10-B,     -0.262332,  -0.466454,  0.038843,  0.038003,   47.79,   0.305
       100-11-A,     -0.521028,  -0.327578,  0.040336,  0.038625,   57.27,   0.290
       100-11-B,     -0.521940,  -0.328334,  0.040880,  0.037178,   61.57,   0.296
       100-12-A,     -0.537994,  -0.014467,  0.040276,  0.038516,   70.64,   0.281
       100-12-B,     -0.538002,  -0.015733,  0.040716,  0.037362,   65.43,   0.290
