DATE,050927
DECK,0.000000
SOURCE,RCW38
EXT_TEMP,-57.793243
BODY
        channel_name, ra_off_dos, dec_off,    beam_sig_a,beam_sig_b,beam_phi,beam_peak,grid_phi
Units,  (null),       deg,        deg,        deg,       deg,       deg,     volts,  deg
Format, string,       float,      float,      float,     float,     float,   float,  float
        150-1-A,     -0.000017,   0.000264,  0.036906,  0.028817,  110.25,   0.308,   33.00
        150-1-B,      0.000017,  -0.000264,  0.035386,  0.028801,  106.58,   0.317,  123.00
        150-2-A,     -0.160624,   0.265035,  0.040066,  0.028784,  114.01,   0.294,  -12.00
        150-2-B,     -0.160864,   0.265539,  0.039784,  0.028940,  118.00,   0.290,   78.00
        150-3-A,      0.144484,   0.276506,  0.039019,  0.028959,  116.88,   0.288,   33.00
        150-3-B,      0.145738,   0.275821,  0.036909,  0.028905,  115.22,   0.300,  123.00
        150-4-A,      0.305481,   0.011477,  0.037982,  0.028791,  106.29,   0.296,  -12.00
        150-4-B,      0.306538,   0.011030,  0.036650,  0.029320,  111.68,   0.302,   78.00
        150-5-A,      0.158675,  -0.259584,  0.037935,  0.030602,  115.31,   0.256,   33.00
        150-5-B,      0.158616,  -0.260523,  0.036193,  0.029403,  108.66,   0.287,  123.00
        150-6-A,     -0.148610,  -0.270764,  0.037667,  0.028279,  103.71,   0.293,  -12.00
        150-6-B,     -0.147555,  -0.271743,  0.037031,  0.028615,  110.32,   0.298,   78.00
        150-7-A,     -0.303325,  -0.012985,  0.037549,  0.028581,  111.32,   0.299,   33.00
        150-7-B,     -0.305048,  -0.012219,  0.036011,  0.029518,  110.01,   0.276,  123.00
        150-8-A,     -0.196181,   0.784221,  0.034148,  0.029008,  110.42,   0.308,   33.00
        150-8-B,     -0.194360,   0.781979,  0.032576,  0.029465,  109.57,   0.325,  123.00
        150-9-A,      0.119345,   0.792794,  0.033739,  0.029137,  111.26,   0.310,  -12.00
        150-9-B,      0.118797,   0.788546,  0.033797,  0.029125,  122.87,   0.318,   78.00
       150-10-A,      0.579699,   0.557663,  0.033832,  0.028995,  113.54,   0.290,   33.00
       150-10-B,      0.581838,   0.558394,  0.032390,  0.029287,  105.40,   0.306,  123.00
       150-11-A,      0.751820,   0.295144,  0.032979,  0.028125,  105.61,   0.315,  -12.00
       150-11-B,      0.752972,   0.295040,  0.033078,  0.028547,  115.84,   0.314,   78.00
       150-12-A,     -0.008128,   0.000600,  0.000000,  0.000000,    0.00,   0.000,   33.00
       150-12-B,      0.768725,  -0.229507,  0.031677,  0.028922,   69.07,   0.333,  123.00
       150-13-A,      0.618982,  -0.507741,  0.031145,  0.030418,   61.70,   0.302,  -12.00
       150-13-B,      0.621763,  -0.506971,  0.030427,  0.029850,   86.36,   0.327,   78.00
       150-14-A,      0.178845,  -0.782793,  0.032538,  0.030585,   92.46,   0.309,   33.00
       150-14-B,      0.176250,  -0.780448,  0.031759,  0.029718,   81.30,   0.317,  123.00
       150-15-A,     -0.137523,  -0.794970,  0.031830,  0.029577,   89.40,   0.306,  -12.00
       150-15-B,     -0.136815,  -0.791810,  0.031730,  0.030560,  114.91,   0.305,   78.00
       150-16-A,     -0.593677,  -0.544834,  0.032905,  0.031519,   72.84,   0.263,   33.00
       150-16-B,     -0.008128,   0.000600,  0.000000,  0.000000,    0.00,   0.000,  123.00
       150-17-A,     -0.759578,  -0.279527,  0.035343,  0.031337,   71.46,   0.259,  -12.00
       150-17-B,     -0.008128,   0.000600,  0.000000,  0.000000,    0.00,   0.000,   78.00
       150-18-A,     -0.772078,   0.246627,  0.034182,  0.031186,  101.44,   0.275,   33.00
       150-18-B,     -0.772676,   0.243701,  0.033632,  0.030866,   89.08,   0.290,  123.00
       150-19-A,     -0.628197,   0.521088,  0.034159,  0.029192,  100.29,   0.296,  -12.00
       150-19-B,     -0.631618,   0.521410,  0.033841,  0.029574,  107.61,   0.310,   78.00
        100-1-A,     -0.325472,   0.527757,  0.040490,  0.038776,   97.11,   0.280,   33.00
        100-1-B,     -0.324406,   0.527087,  0.040291,  0.038738,   74.61,   0.294,  123.00
        100-2-A,     -0.024095,   0.543631,  0.041708,  0.039030,   85.17,   0.273,  -12.00
        100-2-B,     -0.024819,   0.542450,  0.040835,  0.039499,  108.38,   0.285,   78.00
        100-3-A,     -0.008128,   0.000600,  0.000000,  0.000000,    0.00,   0.000,   33.00
        100-3-B,      0.280799,   0.544186,  0.039241,  0.038926,   89.50,   0.300,  123.00
        100-4-A,      0.456835,   0.294269,  0.040615,  0.037395,  101.29,   0.298,  -12.00
        100-4-B,      0.456449,   0.294500,  0.040013,  0.037837,  121.03,   0.312,   78.00
        100-5-A,      0.608862,   0.025413,  0.042384,  0.037964,   78.76,   0.300,  -12.00
        100-5-B,      0.609307,   0.025724,  0.041942,  0.039155,   82.56,   0.297,   78.00
        100-6-A,      0.470358,  -0.250247,  0.040837,  0.039245,   66.31,   0.288,   33.00
        100-6-B,      0.470454,  -0.249172,  0.041237,  0.038167,   48.37,   0.301,  123.00
        100-7-A,      0.317769,  -0.511762,  0.040353,  0.040115,  112.47,   0.270,   33.00
        100-7-B,      0.318707,  -0.511311,  0.040901,  0.039080,   34.36,   0.280,  123.00
        100-8-A,      0.012684,  -0.532877,  0.040809,  0.039908,   48.81,   0.227,  -12.00
        100-8-B,      0.013085,  -0.532192,  0.039941,  0.039567,   76.72,   0.244,   78.00
        100-9-A,     -0.291405,  -0.533513,  0.040304,  0.039338,   47.03,   0.272,   33.00
        100-9-B,     -0.292113,  -0.533495,  0.040519,  0.038214,   44.22,   0.283,  123.00
       100-10-A,     -0.008128,   0.000600,  0.000000,  0.000000,    0.00,   0.000,  -12.00
       100-10-B,     -0.460366,  -0.281677,  0.040988,  0.038537,   83.62,   0.296,   78.00
       100-11-A,     -0.610234,  -0.024393,  0.042546,  0.039314,   97.45,   0.278,   33.00
       100-11-B,     -0.611782,  -0.024868,  0.041492,  0.038937,   77.88,   0.287,  123.00
       100-12-A,     -0.471883,   0.262705,  0.042241,  0.039027,  100.89,   0.272,   33.00
       100-12-B,     -0.472628,   0.261578,  0.041173,  0.039064,   83.42,   0.284,  123.00
