DATE,060128
DECK,0.000000
SOURCE,RCW38
EXT_TEMP,-35.878322
BODY
        channel_name, ra_off_dos, dec_off,    beam_sig_a,beam_sig_b,beam_phi,beam_peak
Units,  (null),       deg,        deg,        deg,       deg,       deg,     volts
Format, string,       float,      float,      float,     float,     float,   float
        150-1-A,     -0.004262,   0.000175,  0.082428,  0.012192,  176.75,   0.549
        150-1-B,      0.004262,  -0.000175,  0.081200,  0.011794,  178.58,   0.587
        150-2-A,     -0.058209,   0.219057,  0.100000,  0.061159,  163.25,   0.406
        150-2-B,     -0.056407,   0.216368,  0.100000,  0.060825,  164.11,   0.418
        150-3-A,      0.185364,   0.191883,  0.090578,  0.014990,  179.50,   0.720
        150-3-B,      0.000000,   0.000000,  0.000000,  0.000000,    0.00,   0.000
        150-4-A,      0.404069,   0.042212,  0.100000,  0.034527,   10.06,   0.451
        150-4-B,      0.363922,   0.041357,  0.100000,  0.030265,   17.44,   0.359
        150-5-A,      0.060798,  -0.266074,  0.034948,  0.030302,  142.48,   0.219
        150-5-B,      0.060259,  -0.266814,  0.033377,  0.030704,  146.55,   0.229
        150-6-A,     -0.243984,  -0.277856,  0.034173,  0.030102,  134.80,   0.234
        150-6-B,     -0.242796,  -0.278866,  0.034642,  0.029495,  145.48,   0.237
        150-7-A,      0.000000,   0.000000,  0.000000,  0.000000,    0.00,   0.000
        150-7-B,      0.000000,   0.000000,  0.000000,  0.000000,    0.00,   0.000
        150-8-A,      0.000000,   0.000000,  0.000000,  0.000000,    0.00,   0.000
        150-8-B,      0.000000,   0.000000,  0.000000,  0.000000,    0.00,   0.000
        150-9-A,      0.030580,   0.771356,  0.028913,  0.026669,   95.93,   0.264
        150-9-B,      0.029447,   0.766648,  0.027791,  0.026900,  158.07,   0.282
       150-10-A,      0.000000,   0.000000,  0.000000,  0.000000,    0.00,   0.000
       150-10-B,      0.000000,   0.000000,  0.000000,  0.000000,    0.00,   0.000
       150-11-A,      0.776837,   0.218369,  0.091138,  0.022809,    9.95,   0.968
       150-11-B,      0.409012,   0.221834,  0.092501,  0.019000,  178.24,   0.993
       150-12-A,      0.673787,  -0.242884,  0.029476,  0.028307,   91.25,   0.304
       150-12-B,      0.674615,  -0.240837,  0.030325,  0.028264,   57.00,   0.301
       150-13-A,      0.523447,  -0.514006,  0.031308,  0.029859,   64.23,   0.288
       150-13-B,      0.525067,  -0.513724,  0.030662,  0.029997,   62.76,   0.302
       150-14-A,      0.081430,  -0.782078,  0.031440,  0.030114,  144.23,   0.274
       150-14-B,      0.079685,  -0.779602,  0.031031,  0.029658,    7.41,   0.277
       150-15-A,     -0.235112,  -0.794534,  0.030870,  0.029679,  131.37,   0.279
       150-15-B,     -0.233350,  -0.791294,  0.032283,  0.029008,  154.47,   0.274
       150-16-A,     -0.692092,  -0.550593,  0.033714,  0.028332,  119.33,   0.279
       150-16-B,     -0.693023,  -0.553283,  0.032364,  0.028683,  116.91,   0.293
       150-17-A,     -0.859894,  -0.284737,  0.031043,  0.028246,  108.02,   0.281
       150-17-B,     -0.861212,  -0.283998,  0.031519,  0.029251,  140.87,   0.265
       150-18-A,      0.000000,   0.000000,  0.000000,  0.000000,    0.00,   0.000
       150-18-B,      0.000000,   0.000000,  0.000000,  0.000000,    0.00,   0.000
       150-19-A,      0.000000,   0.000000,  0.000000,  0.000000,    0.00,   0.000
       150-19-B,      0.000000,   0.000000,  0.000000,  0.000000,    0.00,   0.000
        100-1-A,      0.000000,   0.000000,  0.000000,  0.000000,    0.00,   0.000
        100-1-B,      0.000000,   0.000000,  0.000000,  0.000000,    0.00,   0.000
        100-2-A,      0.000000,   0.000000,  0.000000,  0.000000,    0.00,   0.000
        100-2-B,      0.000000,   0.000000,  0.000000,  0.000000,    0.00,   0.000
        100-3-A,      0.000000,   0.000000,  0.000000,  0.000000,    0.00,   0.000
        100-3-B,      0.000000,   0.000000,  0.000000,  0.000000,    0.00,   0.000
        100-4-A,      0.404726,   0.212913,  0.087783,  0.025522,  170.27,   0.407
        100-4-B,      0.379464,   0.229616,  0.079431,  0.028618,  166.05,   0.307
        100-5-A,      0.000000,   0.000000,  0.000000,  0.000000,    0.00,   0.000
        100-5-B,      0.000000,   0.000000,  0.000000,  0.000000,    0.00,   0.000
        100-6-A,      0.373112,  -0.260029,  0.038659,  0.037764,  142.64,   0.288
        100-6-B,      0.373121,  -0.259516,  0.038983,  0.037321,   22.82,   0.294
        100-7-A,      0.219819,  -0.518628,  0.042024,  0.038498,  106.21,   0.285
        100-7-B,      0.221765,  -0.517309,  0.040965,  0.038869,   85.28,   0.293
        100-8-A,     -0.084551,  -0.540704,  0.041753,  0.038519,   90.43,   0.229
        100-8-B,     -0.078545,  -0.538078,  0.039296,  0.018167,  146.79,   0.765
        100-9-A,     -0.389481,  -0.542152,  0.040838,  0.037834,  107.30,   0.289
        100-9-B,     -0.389768,  -0.542281,  0.040165,  0.037960,   89.03,   0.296
       100-10-A,     -0.558227,  -0.288940,  0.038188,  0.037539,   65.95,   0.287
       100-10-B,     -0.559027,  -0.288193,  0.038870,  0.037494,  177.12,   0.284
       100-11-A,      0.000000,   0.000000,  0.000000,  0.000000,    0.00,   0.000
       100-11-B,     -0.974488,   0.121851,  0.052432,  0.013366,  174.67,   0.520
       100-12-A,      0.000000,   0.000000,  0.000000,  0.000000,    0.00,   0.000
       100-12-B,      0.000000,   0.000000,  0.000000,  0.000000,    0.00,   0.000
