DATE,060215
DECK,0.000000
SOURCE,RCW38
EXT_TEMP,-45.730603
BODY
        channel_name, ra_off_dos, dec_off,    beam_sig_a,beam_sig_b,beam_phi,beam_peak
Units,  (null),       deg,        deg,        deg,       deg,       deg,     volts
Format, string,       float,      float,      float,     float,     float,   float
        150-1-A,     -0.000802,  -0.000160,  0.058752,  0.041759,  119.57,   0.053
        150-1-B,      0.000802,   0.000160,  0.056514,  0.042069,  119.07,   0.052
        150-2-A,     -0.173604,   0.250503,  0.056709,  0.043998,  116.02,   0.054
        150-2-B,     -0.167405,   0.251271,  0.052217,  0.043405,  124.12,   0.054
        150-3-A,      0.134098,   0.257927,  0.056854,  0.043818,  102.63,   0.051
        150-3-B,      0.135020,   0.256490,  0.055618,  0.044448,   99.99,   0.051
        150-4-A,      0.302213,   0.006923,  0.061858,  0.044577,  120.26,   0.046
        150-4-B,      0.303337,   0.006158,  0.061795,  0.044474,  120.84,   0.047
        150-5-A,      0.160482,  -0.263646,  0.064993,  0.044529,  115.20,   0.046
        150-5-B,      0.160227,  -0.266615,  0.065093,  0.044086,  111.56,   0.047
        150-6-A,     -0.146139,  -0.265927,  0.062353,  0.044642,  108.81,   0.046
        150-6-B,     -0.142836,  -0.271065,  0.064895,  0.045143,  105.20,   0.046
        150-7-A,     -0.304333,  -0.012130,  0.056869,  0.044458,  112.94,   0.049
        150-7-B,     -0.305823,  -0.012651,  0.057777,  0.045881,  105.78,   0.046
        150-8-A,     -0.208378,   0.782293,  0.041176,  0.032961,  152.83,   0.086
        150-8-B,     -0.207841,   0.780649,  0.041173,  0.033364,  156.02,   0.086
        150-9-A,      0.113482,   0.786656,  0.043264,  0.031684,  149.54,   0.083
        150-9-B,      0.112295,   0.784539,  0.044509,  0.030556,  153.87,   0.091
       150-10-A,      0.576233,   0.549656,  0.043822,  0.032131,  136.94,   0.087
       150-10-B,      0.578024,   0.550812,  0.042618,  0.033258,  137.06,   0.088
       150-11-A,      0.758124,   0.285893,  0.040426,  0.033455,  129.26,   0.093
       150-11-B,      0.757261,   0.285758,  0.041758,  0.033953,  134.39,   0.091
       150-12-A,      0.785698,  -0.236456,  0.045477,  0.034808,   86.98,   0.098
       150-12-B,      0.787282,  -0.234553,  0.046235,  0.034504,   75.90,   0.099
       150-13-A,      0.636118,  -0.519495,  0.042739,  0.034325,   56.93,   0.101
       150-13-B,      0.636382,  -0.519064,  0.041753,  0.035114,   53.34,   0.105
       150-14-A,      0.177915,  -0.794456,  0.042080,  0.040827,  116.01,   0.087
       150-14-B,      0.177535,  -0.792444,  0.040742,  0.038424,   13.23,   0.092
       150-15-A,     -0.142101,  -0.807751,  0.045832,  0.037000,  135.43,   0.089
       150-15-B,     -0.140384,  -0.804005,  0.044621,  0.035446,  143.42,   0.094
       150-16-A,     -0.604864,  -0.554559,  0.050483,  0.034758,  126.08,   0.091
       150-16-B,     -0.603497,  -0.560475,  0.048784,  0.035993,  122.15,   0.091
       150-17-A,     -0.772787,  -0.278535,  0.051320,  0.033988,  116.36,   0.089
       150-17-B,     -0.774787,  -0.278495,  0.051030,  0.035138,  121.41,   0.087
       150-18-A,     -0.799830,   0.243916,  0.042353,  0.034757,  107.28,   0.095
       150-18-B,     -0.797585,   0.241967,  0.041181,  0.035419,  103.88,   0.092
       150-19-A,     -0.657214,   0.515415,  0.041533,  0.037575,  114.26,   0.090
       150-19-B,     -0.659919,   0.515510,  0.041729,  0.037438,  126.84,   0.080
        100-1-A,      0.000000,   0.000000,  0.000000,  0.000000,    0.00,   0.000
        100-1-B,      0.000000,   0.000000,  0.000000,  0.000000,    0.00,   0.000
        100-2-A,      0.000000,   0.000000,  0.000000,  0.000000,    0.00,   0.000
        100-2-B,      0.000000,   0.000000,  0.000000,  0.000000,    0.00,   0.000
        100-3-A,      0.000000,   0.000000,  0.000000,  0.000000,    0.00,   0.000
        100-3-B,      0.000000,   0.000000,  0.000000,  0.000000,    0.00,   0.000
        100-4-A,      0.000000,   0.000000,  0.000000,  0.000000,    0.00,   0.000
        100-4-B,      0.311671,   0.456773,  0.099999,  0.046019,   90.05,   0.048
        100-5-A,      0.000000,   0.000000,  0.000000,  0.000000,    0.00,   0.000
        100-5-B,      0.000000,   0.000000,  0.000000,  0.000000,    0.00,   0.000
        100-6-A,      0.000000,   0.000000,  0.000000,  0.000000,    0.00,   0.000
        100-6-B,      0.446496,  -0.291532,  0.100000,  0.041535,   88.10,   0.528
        100-7-A,      0.000000,   0.000000,  0.000000,  0.000000,    0.00,   0.000
        100-7-B,      0.000000,   0.000000,  0.000000,  0.000000,    0.00,   0.000
        100-8-A,      0.000000,   0.000000,  0.000000,  0.000000,    0.00,   0.000
        100-8-B,      0.000000,   0.000000,  0.000000,  0.000000,    0.00,   0.000
        100-9-A,     -0.480772,  -0.651117,  0.100000,  0.038292,   89.92,   0.028
        100-9-B,      0.000000,   0.000000,  0.000000,  0.000000,    0.00,   0.000
       100-10-A,      0.000000,   0.000000,  0.000000,  0.000000,    0.00,   0.000
       100-10-B,     -0.337862,  -0.148585,  0.099872,  0.036243,   99.51,   0.073
       100-11-A,      0.000000,   0.000000,  0.000000,  0.000000,    0.00,   0.000
       100-11-B,     -0.648129,  -0.099406,  0.100000,  0.035258,   90.41,   0.161
       100-12-A,      0.000000,   0.000000,  0.000000,  0.000000,    0.00,   0.000
       100-12-B,      0.000000,   0.000000,  0.000000,  0.000000,    0.00,   0.000
