DATE,060326
DECK,0.000000
SOURCE,RCW38
EXT_TEMP,-53.403938
BODY
        channel_name, ra_off_dos, dec_off,    beam_sig_a,beam_sig_b,beam_phi,beam_peak
Units,  (null),       deg,        deg,        deg,       deg,       deg,     volts
Format, string,       float,      float,      float,     float,     float,   float
        150-1-A,     -0.000270,  -0.000114,  0.027290,  0.026154,   53.85,   0.415
        150-1-B,      0.000270,   0.000114,  0.027617,  0.025946,   49.72,   0.414
        150-2-A,     -0.164963,   0.256292,  0.029917,  0.027695,   87.58,   0.407
        150-2-B,     -0.165302,   0.256202,  0.030145,  0.027840,   92.68,   0.396
        150-3-A,      0.136939,   0.267114,  0.029811,  0.027590,   94.81,   0.392
        150-3-B,      0.138074,   0.267208,  0.029473,  0.027487,   78.41,   0.400
        150-4-A,      0.302376,   0.011919,  0.029622,  0.026987,   65.28,   0.394
        150-4-B,      0.303266,   0.011554,  0.029268,  0.027339,   54.99,   0.392
        150-5-A,      0.164885,  -0.260173,  0.029665,  0.027841,   65.74,   0.357
        150-5-B,      0.164115,  -0.259921,  0.029796,  0.027086,   64.38,   0.381
        150-6-A,     -0.139471,  -0.272311,  0.030949,  0.026450,   80.20,   0.377
        150-6-B,     -0.138907,  -0.272109,  0.030461,  0.027099,   83.30,   0.376
        150-7-A,     -0.302642,  -0.009756,  0.027608,  0.026789,  142.85,   0.395
        150-7-B,     -0.303548,  -0.010069,  0.028041,  0.026820,    6.92,   0.372
        150-8-A,     -0.195304,   0.767057,  0.027955,  0.026831,   31.62,   0.368
        150-8-B,     -0.193226,   0.765543,  0.028393,  0.026566,   27.96,   0.371
        150-9-A,      0.116999,   0.776398,  0.029240,  0.026690,   49.73,   0.350
        150-9-B,      0.115972,   0.773587,  0.028879,  0.026941,   40.00,   0.360
       150-10-A,      0.570661,   0.542093,  0.031327,  0.027568,   77.63,   0.337
       150-10-B,      0.573136,   0.542619,  0.031439,  0.027412,   72.14,   0.347
       150-11-A,      0.737570,   0.286062,  0.030409,  0.026973,   72.52,   0.340
       150-11-B,      0.739246,   0.284884,  0.030676,  0.027145,   74.56,   0.344
       150-12-A,      0.767051,  -0.228114,  0.030685,  0.026717,   81.67,   0.353
       150-12-B,      0.767209,  -0.225471,  0.030625,  0.027124,   80.20,   0.349
       150-13-A,      0.623274,  -0.506620,  0.031397,  0.028731,   79.87,   0.344
       150-13-B,      0.625002,  -0.505384,  0.031595,  0.028215,   79.30,   0.362
       150-14-A,      0.185145,  -0.784044,  0.030889,  0.027508,   60.00,   0.354
       150-14-B,      0.183174,  -0.782698,  0.031212,  0.027483,   63.21,   0.346
       150-15-A,     -0.128926,  -0.797050,  0.030592,  0.027308,   64.33,   0.367
       150-15-B,     -0.127564,  -0.795380,  0.030831,  0.027684,   63.63,   0.357
       150-16-A,     -0.576964,  -0.553546,  0.031737,  0.028052,   72.57,   0.346
       150-16-B,     -0.578527,  -0.554397,  0.031376,  0.027769,   71.58,   0.364
       150-17-A,     -0.744723,  -0.282891,  0.030876,  0.027761,   60.09,   0.349
       150-17-B,     -0.745423,  -0.281955,  0.031613,  0.029055,   44.99,   0.321
       150-18-A,     -0.767392,   0.234919,  0.030857,  0.028735,   81.43,   0.350
       150-18-B,     -0.767814,   0.232555,  0.030878,  0.028994,   77.37,   0.346
       150-19-A,     -0.623756,   0.498705,  0.030187,  0.027284,   70.17,   0.377
       150-19-B,     -0.626363,   0.498081,  0.030256,  0.027898,   69.44,   0.328
        100-1-A,     -0.325070,   0.511040,  0.040903,  0.037398,   73.75,   0.286
        100-1-B,     -0.324522,   0.507636,  0.039954,  0.038146,   73.32,   0.312
        100-2-A,     -0.025940,   0.525002,  0.041604,  0.038281,   78.56,   0.295
        100-2-B,     -0.026651,   0.524165,  0.040874,  0.039013,   81.69,   0.299
        100-3-A,      0.274793,   0.526906,  0.040931,  0.038057,   90.25,   0.313
        100-3-B,      0.275652,   0.527740,  0.040536,  0.038510,   78.60,   0.308
        100-4-A,      0.446462,   0.284091,  0.040040,  0.037265,   91.98,   0.289
        100-4-B,      0.446537,   0.283934,  0.039673,  0.037353,   98.89,   0.301
        100-5-A,      0.603078,   0.023900,  0.040375,  0.036618,   70.71,   0.299
        100-5-B,      0.603647,   0.023799,  0.040284,  0.037355,   68.22,   0.296
        100-6-A,      0.473330,  -0.249445,  0.041814,  0.037384,   73.53,   0.308
        100-6-B,      0.473160,  -0.248472,  0.041610,  0.037269,   65.16,   0.315
        100-7-A,      0.325153,  -0.514760,  0.042866,  0.038541,   81.30,   0.302
        100-7-B,      0.326119,  -0.513432,  0.042867,  0.038424,   72.12,   0.310
        100-8-A,      0.023664,  -0.538129,  0.042871,  0.038383,   75.73,   0.239
        100-8-B,      0.000000,   0.000000,  0.000000,  0.000000,    0.00,   0.000
        100-9-A,     -0.278173,  -0.540810,  0.042588,  0.038386,   87.55,   0.299
        100-9-B,     -0.279069,  -0.540673,  0.042442,  0.038029,   82.90,   0.303
       100-10-A,     -0.449193,  -0.283901,  0.041105,  0.037191,   87.23,   0.308
       100-10-B,     -0.450066,  -0.282666,  0.041109,  0.037942,   88.56,   0.306
       100-11-A,     -0.605838,  -0.022660,  0.039544,  0.038362,  112.79,   0.308
       100-11-B,     -0.607312,  -0.023000,  0.039339,  0.038697,   89.68,   0.306
       100-12-A,     -0.472667,   0.251422,  0.042092,  0.037717,   95.52,   0.300
       100-12-B,     -0.472906,   0.250177,  0.041483,  0.038018,   92.07,   0.301
