^C:\USERS\KECK\DOCUMENTS\VISUAL STUDIO 2015\PROJECTS\SIGNALHOUNDSWEEP\SIGNALHOUNDSWEEP\STDAFX.CPP
/c /ZI /nologo /W3 /WX- /sdl /Od /Oy- /D WIN32 /D _DEBUG /D _CONSOLE /D _UNICODE /D UNICODE /Gm /EHsc /RTC1 /MDd /GS /fp:precise /Zc:wchar_t /Zc:forScope /Zc:inline /Yc"stdafx.h" /Fp"DEBUG\SIGNALHOUNDSWEEP.PCH" /Fo"DEBUG\\" /Fd"DEBUG\VC140.PDB" /Gd /TP /analyze- C:\USERS\KECK\DOCUMENTS\VISUAL STUDIO 2015\PROJECTS\SIGNALHOUNDSWEEP\SIGNALHOUNDSWEEP\STDAFX.CPP
^C:\USERS\KECK\DOCUMENTS\VISUAL STUDIO 2015\PROJECTS\SIGNALHOUNDSWEEP\SIGNALHOUNDSWEEP\SIGNALHOUNDSWEEP.CPP
/c /ZI /nologo /W3 /WX- /sdl /Od /Oy- /D WIN32 /D _DEBUG /D _CONSOLE /D _UNICODE /D UNICODE /Gm /EHsc /RTC1 /MDd /GS /fp:precise /Zc:wchar_t /Zc:forScope /Zc:inline /Yu"stdafx.h" /Fp"DEBUG\SIGNALHOUNDSWEEP.PCH" /Fo"DEBUG\\" /Fd"DEBUG\VC140.PDB" /Gd /TP /analyze- C:\USERS\KECK\DOCUMENTS\VISUAL STUDIO 2015\PROJECTS\SIGNALHOUNDSWEEP\SIGNALHOUNDSWEEP\SIGNALHOUNDSWEEP.CPP
^C:\USERS\KECK\DOCUMENTS\SIGNALHOUND\SIGNALHOUNDSWEEP\SIGNALHOUNDSWEEP\STDAFX.CPP
/c /ZI /nologo /W3 /WX- /sdl /Od /Oy- /D WIN32 /D _DEBUG /D _CONSOLE /D _UNICODE /D UNICODE /Gm /EHsc /RTC1 /MDd /GS /fp:precise /Zc:wchar_t /Zc:forScope /Zc:inline /Yc"stdafx.h" /Fp"DEBUG\SIGNALHOUNDSWEEP.PCH" /Fo"DEBUG\\" /Fd"DEBUG\VC140.PDB" /Gd /TP /analyze- C:\USERS\KECK\DOCUMENTS\SIGNALHOUND\SIGNALHOUNDSWEEP\SIGNALHOUNDSWEEP\STDAFX.CPP
^C:\USERS\KECK\DOCUMENTS\SIGNALHOUND\SIGNALHOUNDSWEEP\SIGNALHOUNDSWEEP\SIGNALHOUNDSWEEP.CPP
/c /ZI /nologo /W3 /WX- /sdl /Od /Oy- /D WIN32 /D _DEBUG /D _CONSOLE /D _UNICODE /D UNICODE /Gm /EHsc /RTC1 /MDd /GS /fp:precise /Zc:wchar_t /Zc:forScope /Zc:inline /Yu"stdafx.h" /Fp"DEBUG\SIGNALHOUNDSWEEP.PCH" /Fo"DEBUG\\" /Fd"DEBUG\VC140.PDB" /Gd /TP /analyze- C:\USERS\KECK\DOCUMENTS\SIGNALHOUND\SIGNALHOUNDSWEEP\SIGNALHOUNDSWEEP\SIGNALHOUNDSWEEP.CPP
