^C:\USERS\KECK\DOCUMENTS\SIGNALHOUND\SIGNALHOUNDSWEEP\SIGNALHOUNDSWEEP\STDAFX.CPP
C:\USERS\KECK\DOCUMENTS\SIGNALHOUND\SIGNALHOUNDSWEEP\SIGNALHOUNDSWEEP\DEBUG\SIGNALHOUNDSWEEP.PCH
C:\USERS\KECK\DOCUMENTS\SIGNALHOUND\SIGNALHOUNDSWEEP\SIGNALHOUNDSWEEP\DEBUG\VC140.PDB
C:\USERS\KECK\DOCUMENTS\SIGNALHOUND\SIGNALHOUNDSWEEP\SIGNALHOUNDSWEEP\DEBUG\VC140.IDB
C:\USERS\KECK\DOCUMENTS\SIGNALHOUND\SIGNALHOUNDSWEEP\SIGNALHOUNDSWEEP\DEBUG\STDAFX.OBJ
^C:\USERS\KECK\DOCUMENTS\SIGNALHOUND\SIGNALHOUNDSWEEP\SIGNALHOUNDSWEEP\SIGNALHOUNDSWEEP.CPP
C:\USERS\KECK\DOCUMENTS\SIGNALHOUND\SIGNALHOUNDSWEEP\SIGNALHOUNDSWEEP\DEBUG\VC140.PDB
C:\USERS\KECK\DOCUMENTS\SIGNALHOUND\SIGNALHOUNDSWEEP\SIGNALHOUNDSWEEP\DEBUG\VC140.IDB
C:\USERS\KECK\DOCUMENTS\SIGNALHOUND\SIGNALHOUNDSWEEP\SIGNALHOUNDSWEEP\DEBUG\SIGNALHOUNDSWEEP.OBJ
